\relax 
\providecommand\hyper@newdestlabel[2]{}
\providecommand\HyperFirstAtBeginDocument{\AtBeginDocument}
\HyperFirstAtBeginDocument{\ifx\hyper@anchor\@undefined
\global\let\oldcontentsline\contentsline
\gdef\contentsline#1#2#3#4{\oldcontentsline{#1}{#2}{#3}}
\global\let\oldnewlabel\newlabel
\gdef\newlabel#1#2{\newlabelxx{#1}#2}
\gdef\newlabelxx#1#2#3#4#5#6{\oldnewlabel{#1}{{#2}{#3}}}
\AtEndDocument{\ifx\hyper@anchor\@undefined
\let\contentsline\oldcontentsline
\let\newlabel\oldnewlabel
\fi}
\fi}
\global\let\hyper@last\relax 
\gdef\HyperFirstAtBeginDocument#1{#1}
\providecommand*\HyPL@Entry[1]{}
\HyPL@Entry{0<</P()>>}
\HyPL@Entry{1<</S/D>>}
\@writefile{toc}{\contentsline {section}{\numberline {1}Introduction}{2}{section.1}}
\@writefile{toc}{\contentsline {subsection}{\numberline {1.1}Background}{2}{subsection.1.1}}
\@writefile{toc}{\contentsline {subsection}{\numberline {1.2}Previous Research}{2}{subsection.1.2}}
\@writefile{toc}{\contentsline {subsection}{\numberline {1.3}Out work}{2}{subsection.1.3}}
\@writefile{toc}{\contentsline {section}{\numberline {2}Analysis of the Problem}{2}{section.2}}
\@writefile{toc}{\contentsline {subsection}{\numberline {2.1}Problem one}{2}{subsection.2.1}}
\@writefile{toc}{\contentsline {subsection}{\numberline {2.2}Problem two}{2}{subsection.2.2}}
\@writefile{toc}{\contentsline {subsection}{\numberline {2.3}Problem three}{2}{subsection.2.3}}
\@writefile{toc}{\contentsline {section}{\numberline {3}Assumptions}{2}{section.3}}
\bibcite{1}{1}
\bibcite{2}{2}
\@writefile{toc}{\contentsline {section}{\numberline {4}Symbols Definition}{3}{section.4}}
\@writefile{toc}{\contentsline {section}{\numberline {5}Validating the Model}{3}{section.5}}
\@writefile{toc}{\contentsline {section}{\numberline {6}Conclusions}{3}{section.6}}
\@writefile{toc}{\contentsline {section}{\numberline {7}A Summary}{3}{section.7}}
\@writefile{toc}{\contentsline {section}{\numberline {8}Evaluate of the Mode}{3}{section.8}}
\@writefile{toc}{\contentsline {section}{\numberline {9}Strengths and weaknesses}{3}{section.9}}
\@writefile{toc}{\contentsline {subsection}{\numberline {9.1}Strengths}{3}{subsection.9.1}}
\@writefile{toc}{\contentsline {section}{Appendices}{3}{section*.2}}
\@writefile{toc}{\contentsline {section}{Appendix \numberline {A}First appendix}{3}{Appendix.a.A}}
\@writefile{toc}{\contentsline {section}{Appendix \numberline {B}Second appendix}{3}{Appendix.a.B}}
\newlabel{LastPage}{{}{3}{}{page.3}{}}
\xdef\lastpage@lastpage{3}
\xdef\lastpage@lastpageHy{3}
