\relax 
\providecommand\hyper@newdestlabel[2]{}
\providecommand\HyperFirstAtBeginDocument{\AtBeginDocument}
\HyperFirstAtBeginDocument{\ifx\hyper@anchor\@undefined
\global\let\oldcontentsline\contentsline
\gdef\contentsline#1#2#3#4{\oldcontentsline{#1}{#2}{#3}}
\global\let\oldnewlabel\newlabel
\gdef\newlabel#1#2{\newlabelxx{#1}#2}
\gdef\newlabelxx#1#2#3#4#5#6{\oldnewlabel{#1}{{#2}{#3}}}
\AtEndDocument{\ifx\hyper@anchor\@undefined
\let\contentsline\oldcontentsline
\let\newlabel\oldnewlabel
\fi}
\fi}
\global\let\hyper@last\relax 
\gdef\HyperFirstAtBeginDocument#1{#1}
\providecommand*\HyPL@Entry[1]{}
\HyPL@Entry{0<</P()>>}
\HyPL@Entry{1<</S/D>>}
\@writefile{toc}{\contentsline {section}{\numberline {1}Introduction}{3}{section.1}}
\@writefile{toc}{\contentsline {subsection}{\numberline {1.1}Background}{3}{subsection.1.1}}
\@writefile{toc}{\contentsline {subsection}{\numberline {1.2}Previous Research}{3}{subsection.1.2}}
\@writefile{toc}{\contentsline {subsection}{\numberline {1.3}Out work}{3}{subsection.1.3}}
\@writefile{toc}{\contentsline {section}{\numberline {2}Analysis of the Problem}{3}{section.2}}
\@writefile{toc}{\contentsline {subsection}{\numberline {2.1}Problem one}{3}{subsection.2.1}}
\@writefile{toc}{\contentsline {subsection}{\numberline {2.2}Problem two}{3}{subsection.2.2}}
\@writefile{toc}{\contentsline {subsection}{\numberline {2.3}Problem three}{4}{subsection.2.3}}
\@writefile{toc}{\contentsline {section}{\numberline {3}Assumptions}{4}{section.3}}
\@writefile{toc}{\contentsline {section}{\numberline {4}Symbols Definition}{4}{section.4}}
\@writefile{toc}{\contentsline {section}{\numberline {5}Validating the Model}{4}{section.5}}
\@writefile{toc}{\contentsline {subsection}{\numberline {5.1}北极冰帽覆盖面积随时间变化的回归方程}{4}{subsection.5.1}}
\@writefile{toc}{\contentsline {subsubsection}{\numberline {5.1.1}数据}{4}{subsubsection.5.1.1}}
\@writefile{lof}{\contentsline {figure}{\numberline {1}{\ignorespaces 原始数据散点图}}{5}{figure.1}}
\newlabel{fig:5.1.1}{{1}{5}{原始数据散点图}{figure.1}{}}
\@writefile{lof}{\contentsline {figure}{\numberline {2}{\ignorespaces 参数$b_0$,$b_1$}}{5}{figure.2}}
\newlabel{fig:5.1.2}{{2}{5}{参数$b_0$,$b_1$}{figure.2}{}}
\@writefile{lof}{\contentsline {figure}{\numberline {3}{\ignorespaces 参数的置信区间}}{6}{figure.3}}
\newlabel{fig:5.1.3}{{3}{6}{参数的置信区间}{figure.3}{}}
\@writefile{lof}{\contentsline {figure}{\numberline {4}{\ignorespaces 残差R-1}}{6}{figure.4}}
\newlabel{fig:5.1.4}{{4}{6}{残差R-1}{figure.4}{}}
\@writefile{lof}{\contentsline {figure}{\numberline {5}{\ignorespaces 残差R-2}}{6}{figure.5}}
\newlabel{fig:5.1.5}{{5}{6}{残差R-2}{figure.5}{}}
\@writefile{toc}{\contentsline {subsubsection}{\numberline {5.1.2}原始数据散点图}{6}{subsubsection.5.1.2}}
\@writefile{toc}{\contentsline {subsubsection}{\numberline {5.1.3}参数$b_0$,$b_1$}{6}{subsubsection.5.1.3}}
\@writefile{toc}{\contentsline {subsubsection}{\numberline {5.1.4}参数的置信区间}{6}{subsubsection.5.1.4}}
\@writefile{toc}{\contentsline {subsubsection}{\numberline {5.1.5}残差r及其置信区间}{6}{subsubsection.5.1.5}}
\@writefile{toc}{\contentsline {subsubsection}{\numberline {5.1.6}检验参数}{6}{subsubsection.5.1.6}}
\@writefile{toc}{\contentsline {subsubsection}{\numberline {5.1.7}残差图}{6}{subsubsection.5.1.7}}
\@writefile{toc}{\contentsline {subsubsection}{\numberline {5.1.8}散点图及回归线}{6}{subsubsection.5.1.8}}
\@writefile{lof}{\contentsline {figure}{\numberline {6}{\ignorespaces 残差R的置信区间-1}}{7}{figure.6}}
\newlabel{fig:5.1.6}{{6}{7}{残差R的置信区间-1}{figure.6}{}}
\@writefile{lof}{\contentsline {figure}{\numberline {7}{\ignorespaces 残差R的置信区间-2}}{7}{figure.7}}
\newlabel{fig:5.1.7}{{7}{7}{残差R的置信区间-2}{figure.7}{}}
\@writefile{lof}{\contentsline {figure}{\numberline {8}{\ignorespaces 检验参数}}{7}{figure.8}}
\newlabel{fig:5.1.8}{{8}{7}{检验参数}{figure.8}{}}
\@writefile{toc}{\contentsline {subsection}{\numberline {5.2}$CO_2$浓度与北极冰帽覆盖面积之间的回归方程}{7}{subsection.5.2}}
\@writefile{lof}{\contentsline {figure}{\numberline {9}{\ignorespaces 残差图}}{8}{figure.9}}
\newlabel{fig:5.1.9}{{9}{8}{残差图}{figure.9}{}}
\@writefile{lof}{\contentsline {figure}{\numberline {10}{\ignorespaces 散点图及回归线}}{8}{figure.10}}
\newlabel{fig:5.1.10}{{10}{8}{散点图及回归线}{figure.10}{}}
\@writefile{lof}{\contentsline {figure}{\numberline {11}{\ignorespaces 原始数据散点图}}{9}{figure.11}}
\newlabel{fig:5.2.1}{{11}{9}{原始数据散点图}{figure.11}{}}
\@writefile{toc}{\contentsline {subsubsection}{\numberline {5.2.1}数据来源}{9}{subsubsection.5.2.1}}
\@writefile{toc}{\contentsline {subsubsection}{\numberline {5.2.2}原始数据散点图}{9}{subsubsection.5.2.2}}
\@writefile{toc}{\contentsline {subsubsection}{\numberline {5.2.3}参数值及置信区间}{9}{subsubsection.5.2.3}}
\@writefile{toc}{\contentsline {subsubsection}{\numberline {5.2.4}残差r及其置信区间}{9}{subsubsection.5.2.4}}
\@writefile{toc}{\contentsline {subsubsection}{\numberline {5.2.5}检验参数}{9}{subsubsection.5.2.5}}
\@writefile{toc}{\contentsline {subsubsection}{\numberline {5.2.6}残差图}{9}{subsubsection.5.2.6}}
\@writefile{toc}{\contentsline {subsubsection}{\numberline {5.2.7}散点图及回归线}{9}{subsubsection.5.2.7}}
\@writefile{lof}{\contentsline {figure}{\numberline {12}{\ignorespaces 参数值及置信区间}}{10}{figure.12}}
\newlabel{fig:5.2.2}{{12}{10}{参数值及置信区间}{figure.12}{}}
\@writefile{toc}{\contentsline {subsection}{\numberline {5.3}研究北极冰帽融化对佛罗里达州会产生什么影响，应用层次分析法针对如何减小浓度给出可行性措施。}{10}{subsection.5.3}}
\@writefile{toc}{\contentsline {section}{\numberline {6}Conclusions}{10}{section.6}}
\@writefile{toc}{\contentsline {section}{\numberline {7}A Summary}{10}{section.7}}
\@writefile{toc}{\contentsline {section}{\numberline {8}Evaluate of the Mode}{10}{section.8}}
\@writefile{toc}{\contentsline {section}{\numberline {9}Strengths and weaknesses}{10}{section.9}}
\@writefile{toc}{\contentsline {subsection}{\numberline {9.1}Strengths}{10}{subsection.9.1}}
\bibcite{1}{1}
\bibcite{2}{2}
\bibcite{3}{3}
\bibcite{4}{4}
\@writefile{lof}{\contentsline {figure}{\numberline {13}{\ignorespaces 残差R的置信区间-1}}{11}{figure.13}}
\newlabel{fig:5.2.3}{{13}{11}{残差R的置信区间-1}{figure.13}{}}
\@writefile{lof}{\contentsline {figure}{\numberline {14}{\ignorespaces 残差R的置信区间-2}}{11}{figure.14}}
\newlabel{fig:5.2.4}{{14}{11}{残差R的置信区间-2}{figure.14}{}}
\@writefile{lof}{\contentsline {figure}{\numberline {15}{\ignorespaces 检验参数}}{11}{figure.15}}
\newlabel{fig:5.2.5}{{15}{11}{检验参数}{figure.15}{}}
\@writefile{lof}{\contentsline {figure}{\numberline {16}{\ignorespaces 残差图}}{12}{figure.16}}
\newlabel{fig:5.2.6}{{16}{12}{残差图}{figure.16}{}}
\@writefile{lof}{\contentsline {figure}{\numberline {17}{\ignorespaces 散点图及回归线}}{12}{figure.17}}
\newlabel{fig:5.2.7}{{17}{12}{散点图及回归线}{figure.17}{}}
\@writefile{toc}{\contentsline {section}{Appendices}{12}{section*.2}}
\@writefile{toc}{\contentsline {section}{Appendix \numberline {A}First appendix}{12}{Appendix.a.A}}
\@writefile{lol}{\contentsline {lstlisting}{./code/mcmthesis\textendash matlab1.m}{12}{lstlisting.-1}}
\@writefile{toc}{\contentsline {section}{Appendix \numberline {B}Second appendix}{13}{Appendix.a.B}}
\@writefile{lol}{\contentsline {lstlisting}{./code/mcmthesis\textendash sudoku.cpp}{13}{lstlisting.-2}}
\newlabel{LastPage}{{}{13}{}{page.13}{}}
\xdef\lastpage@lastpage{13}
\xdef\lastpage@lastpageHy{13}
