\relax 
\@writefile{toc}{\contentsline {section}{\numberline {1}实习目的}{2}}
\@writefile{toc}{\contentsline {section}{\numberline {2}实习内容}{2}}
\@writefile{lof}{\contentsline {figure}{\numberline {1}{\ignorespaces Linux.c 内容}}{2}}
\newlabel{1.1}{{1}{2}}
\@writefile{lof}{\contentsline {figure}{\numberline {2}{\ignorespaces Linux.c 运行结果}}{2}}
\newlabel{1.2}{{2}{2}}
\@writefile{lof}{\contentsline {figure}{\numberline {3}{\ignorespaces gcc avg.i -o avg.s -S 编译阶段}}{3}}
\newlabel{2.1}{{3}{3}}
\@writefile{lof}{\contentsline {figure}{\numberline {4}{\ignorespaces gcc -o avg.c avg.i -E 预处理阶段}}{4}}
\newlabel{2.2}{{4}{4}}
\@writefile{toc}{\contentsline {section}{\numberline {3}实习总结}{4}}
\@writefile{lof}{\contentsline {figure}{\numberline {5}{\ignorespaces gcc avg.s -o avg.o -c 汇编阶段}}{5}}
\newlabel{2.3}{{5}{5}}
\@writefile{lof}{\contentsline {figure}{\numberline {6}{\ignorespaces gcc avg.o -o avg}}{5}}
\newlabel{2.4}{{6}{5}}
\@writefile{lof}{\contentsline {figure}{\numberline {7}{\ignorespaces gdb 调试}}{5}}
\newlabel{3.1}{{7}{5}}
\@writefile{lof}{\contentsline {figure}{\numberline {8}{\ignorespaces prom.c 文件}}{6}}
\newlabel{4.1}{{8}{6}}
\@writefile{lof}{\contentsline {figure}{\numberline {9}{\ignorespaces fast.c 文件}}{6}}
\newlabel{4.2}{{9}{6}}
\@writefile{lof}{\contentsline {figure}{\numberline {10}{\ignorespaces insert.c 文件}}{7}}
\newlabel{4.3}{{10}{7}}
\@writefile{lof}{\contentsline {figure}{\numberline {11}{\ignorespaces 创建库文件}}{7}}
\newlabel{4.4}{{11}{7}}
\@writefile{lof}{\contentsline {figure}{\numberline {12}{\ignorespaces 加入.h文件}}{7}}
\newlabel{4.5}{{12}{7}}
\@writefile{lof}{\contentsline {figure}{\numberline {13}{\ignorespaces 用l选项访问函数库，用L选项指示库文件所在目录}}{7}}
\newlabel{4.9}{{13}{7}}
\@writefile{lof}{\contentsline {figure}{\numberline {14}{\ignorespaces 不使用库编译prom.c}}{7}}
\newlabel{4.6}{{14}{7}}
\@writefile{lof}{\contentsline {figure}{\numberline {15}{\ignorespaces 使用库文件libsort.a编译prom.c}}{8}}
\newlabel{4.7}{{15}{8}}
\@writefile{lof}{\contentsline {figure}{\numberline {16}{\ignorespaces Makefile 文件}}{8}}
\newlabel{make}{{16}{8}}
\@writefile{lof}{\contentsline {figure}{\numberline {17}{\ignorespaces 运行结果}}{8}}
\newlabel{out}{{17}{8}}
